Mesh in 3 dimensions:
  0-cells: 27
  3-cells: 48
Labels:
  marker: 1 strata of sizes (26)
  depth: 2 strata of sizes (27, 48)
GPU layout grid(3,4,1) block(4,1,1) with 1 batches
 N_t: 4, N_cb: 1
Residual:
Vec Object: 1 MPI processes
  type: seq
-0.0833333
0.0833333
0.0833333
0.25
-0.0833333
0.0833333
0.0833333
0.25
0.0416667
0.0833333
0.25
0.0416667
-0.0833333
-0.125
-0.125
0.0833333
-0.125
0.0416667
-0.125
0.0416667
-0.25
-0.166667
0.416667
-0.25
-0.166667
0.416667
-0.666667
